## Interface: 80000
## Title: |cffA02C2Fbd|rMinimap
## Version: 0
## DefaultState: Enabled
## LoadOnDemand: 0
## Dependencies: bdCore

## libs\lad_data.lua
## libs\LibArtifactData-1.0.lua
## libs\LibArtifactPower-1.0.lua

config.lua
core.lua
minimap.lua
xp.lua
## artifact.lua
quest.lua